…
    ## `summarise()` has grouped output by 'Person'. You can override using the
    ## `.groups` argument.

    mm<-mm[order(mm$Person, decreasing = TRUE), ]   
    mm

    ## # A tibble: 1,483 × 2
    ## # Groups:   Person [1,359]
    ##    Person                    count
    ##    <chr>                     <int>
    ##  1 ff02::fb                   3298
    ##  2 ff02::1:3                 14411
    ##  3 fec0:0:0:ffff::3             44
    ##  4 fec0:0:0:ffff::2             47
    ##  5 fec0:0:0:ffff::1             47
    ##  6 fe80::f2de:f1ff:fe9b:ad6a    30
    ##  7 fe80::d840:5635:ef48:b032   276
    ##  8 fe80::d69a:20ff:fef9:b49c   141
    ##  9 fe80::d69a:20ff:fef9:b49c     2
    ## 10 fe80::c62c:3ff:fe37:efc     126
    ## # … with 1,473 more rows
…
    ##  inf$`query `             n        
    ##  Length:10          Min.   : 6569  
    ##  Class :character   1st Qu.: 7720  
    ##  Mode  :character   Median :11030  
    ##                     Mean   :13177  
    ##                     3rd Qu.:13320  
    ##                     Max.   :39273

## 9. Часто вредоносное программное обеспечение использует DNS канал в качестве канала управления, периодически отправляя запросы на подконтрольный злоумышленникам DNS сервер. По периодическим запросам на один и тот же домен можно выявить скрытый DNS канал. Есть ли такие IP адреса в исследуемом датасете?

    ms<-inf[,c("orig_ip ","query ")]
    m8<-ms
    m8%>%group_by(m8$`query `)

    ## # A tibble: 427,935 × 3
    ## # Groups:   m8$`query ` [5,178]
    ##    `orig_ip `      `query `                                              m8$\q…¹
    ##    <chr>           <chr>                                                 <chr>  
    ##  1 192.168.202.100 "*\\x00\\x00\\x00\\x00\\x00\\x00\\x00\\x00\\x00\\x00… "*\\x0…
    ##  2 192.168.202.76  "HPE8AA67"                                            "HPE8A…
    ##  3 192.168.202.76  "HPE8AA67"                                            "HPE8A…
    ##  4 192.168.202.76  "HPE8AA67"                                            "HPE8A…
    ##  5 192.168.202.76  "WPAD"                                                "WPAD" 
    ##  6 192.168.202.76  "WPAD"                                                "WPAD" 
    ##  7 192.168.202.76  "WPAD"                                                "WPAD" 
    ##  8 192.168.202.89  "EWREP1"                                              "EWREP…
    ##  9 192.168.202.89  "EWREP1"                                              "EWREP…
    ## 10 192.168.202.89  "EWREP1"                                              "EWREP…
    ## # … with 427,925 more rows, and abbreviated variable name ¹​`m8$\`query \``

    m8<-m8%>%group_by(m8$orig_ip ) %>%count(m8$`query `,sort=TRUE)
    m8<-m8%>%count(m8$`m8$orig_ip`,)
    m8<-m8[which(m8$n==1),]
    m8[,c('m8$orig_ip')]

    ## # A tibble: 78 × 1
    ## # Groups:   m8$orig_ip [78]
    ##    `m8$orig_ip`   
    ##    <chr>          
    ##  1 128.244.172.252
    ##  2 172.16.10.130  
    ##  3 192.168.100.130
    ##  4 192.168.202.116
    ##  5 192.168.207.58 
    ##  6 192.168.208.18 
    ##  7 192.168.21.1   
    ##  8 192.168.21.100 
    ##  9 192.168.21.102 
    ## 10 192.168.21.202 
    ## # … with 68 more rows
…
